{
  "project_info": {
    "project_number": "551557103864",
    "firebase_url": "https://bar-app-287918.firebaseio.com",
    "project_id": "bar-app-287918",
    "storage_bucket": "bar-app-287918.appspot.com"
  },
  "client": [
    {
      "client_info": {
        "mobilesdk_app_id": "1:551557103864:android:79a511239356ef3ac1bb0d",
        "android_client_info": {
          "package_name": "com.adzowzo.barapptest"
        }
      },
      "oauth_client": [
        {
          "client_id": "551557103864-e8le675avhdtrvc31bc7pq7hsmdni9ga.apps.googleusercontent.com",
          "client_type": 1,
          "android_info": {
            "package_name": "com.adzowzo.barapptest",
            "certificate_hash": "3259077ddb53473a32a6bf69d2f0826c19d7b99b"
          }
        },
        {
          "client_id": "551557103864-c4is6rk130j73hvft7imbq0pkq093ipd.apps.googleusercontent.com",
          "client_type": 3
        }
      ],
      "api_key": [
        {
          "current_key": "AIzaSyCAOop0LWbs3jb6Y9AqOc7tU03RddiV_Gg"
        }
      ],
      "services": {
        "appinvite_service": {
          "other_platform_oauth_client": [
            {
              "client_id": "551557103864-c4is6rk130j73hvft7imbq0pkq093ipd.apps.googleusercontent.com",
              "client_type": 3
            },
            {
              "client_id": "551557103864-7hfvv81ibgkuirpr640j0mhr3hncm6u3.apps.googleusercontent.com",
              "client_type": 2,
              "ios_info": {
                "bundle_id": "host.exp.exponent"
              }
            }
          ]
        }
      }
    }
  ],
  "configuration_version": "1"
}